Data manipulation with dplyr, purrr and broom
…
---
# Summarise and Group_by

```r
french_fries %>%
    group_by(time, treatment) %>%
    summarise(mean_rancid = mean(rancid), sd_rancid = sd(rancid))
# A tibble: 30 x 4
# Groups:   time [10]
   time  treatment mean_rancid sd_rancid
   <fct> <fct>           <dbl>     <dbl>
 1 1     1                2.76      3.21
 2 1     2                1.72      2.71
 3 1     3                2.6       3.20
 4 2     1                3.9       4.37
 5 2     2                2.14      3.12
 6 2     3                2.50      3.38
 7 3     1                4.65      3.93
 8 3     2                2.90      3.77
 9 3     3                3.6       3.59
10 4     1                2.08      2.39
# … with 20 more rows
```
…
---
# Extract values for each coefficient

Extract all countries automatically (hello `map` again!)

```r
by_country$coefs <- by_country$model %>% purrr::map(broom::tidy)
by_country
# A tibble: 142 x 5
   continent country     data              model  coefs           
   <fct>     <fct>       <list>            <list> <list>          
 1 Asia      Afghanistan <tibble [12 × 4]> <lm>   <tibble [2 × 5]>
 2 Europe    Albania     <tibble [12 × 4]> <lm>   <tibble [2 × 5]>
 3 Africa    Algeria     <tibble [12 × 4]> <lm>   <tibble [2 × 5]>
 4 Africa    Angola      <tibble [12 × 4]> <lm>   <tibble [2 × 5]>
 5 Americas  Argentina   <tibble [12 × 4]> <lm>   <tibble [2 × 5]>
 6 Oceania   Australia   <tibble [12 × 4]> <lm>   <tibble [2 × 5]>
 7 Europe    Austria     <tibble [12 × 4]> <lm>   <tibble [2 × 5]>
 8 Asia      Bahrain     <tibble [12 × 4]> <lm>   <tibble [2 × 5]>
 9 Asia      Bangladesh  <tibble [12 × 4]> <lm>   <tibble [2 × 5]>
10 Europe    Belgium     <tibble [12 × 4]> <lm>   <tibble [2 × 5]>
# … with 132 more rows
```

---
# Get the coefficients into one data set

`unnest` pulls little data frames back into the whole frame

```r
by_country_coefs <- by_country %>% unnest(coefs)
by_country_coefs
# A tibble: 284 x 7
   continent country     term        estimate std.error statistic  p.value
   <fct>     <fct>       <chr>          <dbl>     <dbl>     <dbl>    <dbl>
 1 Asia      Afghanistan (Intercept)   29.4     0.699       42.0  1.40e-12
 2 Asia      Afghanistan year           0.275   0.0205      13.5  9.84e- 8
 3 Europe    Albania     (Intercept)   58.6     1.13        51.7  1.79e-13
 4 Europe    Albania     year           0.335   0.0332      10.1  1.46e- 6
 5 Africa    Algeria     (Intercept)   42.2     0.756       55.8  8.22e-14
 6 Africa    Algeria     year           0.569   0.0221      25.7  1.81e-10
 7 Africa    Angola      (Intercept)   31.7     0.804       39.4  2.63e-12
 8 Africa    Angola      year           0.209   0.0235       8.90 4.59e- 6
 9 Americas  Argentina   (Intercept)   62.2     0.167      372.   4.80e-22
10 Americas  Argentina   year           0.232   0.00489     47.4  4.22e-13
# … with 274 more rows
```
…
