Tidying your data
…
---
# The pipe operator `%>%`

- `x %>% f(y)` is the same as `f(x, y)`
- part of `dplyr` package
- pipes allow the code to be *read* like a sequence of operations

Example:

```r
tb <- read_csv(here::here("data/TB_notifications_2019-07-01.csv"))
tb %>% filter(year == 2016) %>% group_by(country) %>% 
  summarize(cases = sum(c_newinc, na.rm=TRUE)) %>% arrange(desc(cases))
# A tibble: 216 x 2
   country                            cases
   <chr>                              <dbl>
 1 India                            1763876
 2 China                             778493
 3 Indonesia                         364671
 4 Pakistan                          356390
 5 Philippines                       332941
 6 South Africa                      237045
 7 Bangladesh                        222248
 8 Myanmar                           137551
 9 Democratic Republic of the Congo  130596
10 Ethiopia                          125836
# … with 206 more rows
```
…
