Wrangling Data and Models
…
---
# Summarise and group_by

```r
french_fries %>%
    group_by(time, treatment) %>%
    summarise(mean_rancid = mean(rancid), sd_rancid = sd(rancid))
# A tibble: 30 x 4
# Groups:   time [10]
   time  treatment mean_rancid sd_rancid
   <fct> <fct>           <dbl>     <dbl>
 1 1     1                2.76      3.21
 2 1     2                1.72      2.71
 3 1     3                2.6       3.20
 4 2     1                3.9       4.37
 5 2     2                2.14      3.12
 6 2     3                2.50      3.38
 7 3     1                4.65      3.93
 8 3     2                2.90      3.77
 9 3     3                3.6       3.59
10 4     1                2.08      2.39
# … with 20 more rows
```
…
